<?xml version="1.0" encoding="utf-8"?>
<!-- Generator: Adobe Illustrator 24.1.0, SVG Export Plug-In . SVG Version: 6.00 Build 0)  -->
<svg version="1.1" xmlns="http://www.w3.org/2000/svg" xmlns:xlink="http://www.w3.org/1999/xlink" x="0px" y="0px"
	 viewBox="0 0 1024 1024" style="enable-background:new 0 0 1024 1024;" xml:space="preserve">
<g id="Icon_Guidlines" style="display:none;">
	<g style="display:inline;">
	</g>
	<g style="display:inline;">
		<g>
			<g>
				<polygon style="fill:#E6E6EB;" points="318,1152.87 -131.79,1152.87 25.64,995.45 27.05,996.86 -126.96,1150.87 318,1150.87 
									"/>
			</g>
			<g>
				<g>
					<polygon style="fill:#E6E6EB;" points="34.33,988.17 18.48,994.82 25.75,996.75 27.68,1004.02 					"/>
				</g>
			</g>
		</g>
	</g>
	<g style="display:inline;">
		<g>
			<rect x="510" y="-1.5" style="fill:#666666;" width="4" height="1024"/>
		</g>
		<g>
			<rect x="704" y="-1.5" style="fill:#666666;" width="4" height="1024"/>
		</g>
		<g>
			<rect x="956" y="-1.5" style="fill:#666666;" width="4" height="1024"/>
		</g>
		<g>
			<rect x="1022" y="-239.5" style="fill:#666666;" width="4" height="1264"/>
		</g>
		<g>
			<rect x="-2" y="-239.5" style="fill:#666666;" width="4" height="1264"/>
		</g>
		<g>
			<rect x="316" y="-1.5" style="fill:#666666;" width="4" height="1024"/>
		</g>
		<g>
			<rect x="64" y="-1.5" style="fill:#666666;" width="4" height="1024"/>
		</g>
		<g>
			<rect x="-238" y="702.5" style="fill:#666666;" width="1262" height="4"/>
		</g>
		<g>
			<rect x="0" y="954.5" style="fill:#666666;" width="1262" height="4"/>
		</g>
		<g>
			<rect x="-238" y="314.5" style="fill:#666666;" width="1262" height="4"/>
		</g>
		<g>
			<rect x="-238" y="62.5" style="fill:#666666;" width="1500" height="4"/>
		</g>
		<g>
			<rect x="0" y="-3.5" style="fill:#666666;" width="1024" height="4"/>
		</g>
		<g>
			<rect x="-2" y="1020.5" style="fill:#666666;" width="1028" height="4"/>
		</g>
		<g>
			<rect x="0" y="508.5" style="fill:#666666;" width="1024" height="4"/>
		</g>
		<g>
			<path style="fill:#666666;" d="M512,786.85c-73.82,0-143.21-28.75-195.41-80.94c-52.2-52.2-80.94-121.59-80.94-195.41
				c0-73.82,28.75-143.21,80.94-195.41c52.2-52.2,121.59-80.94,195.41-80.94s143.21,28.75,195.41,80.94
				c52.2,52.2,80.94,121.59,80.94,195.41c0,73.82-28.75,143.21-80.94,195.41C655.21,758.1,585.82,786.85,512,786.85z M512,238.15
				c-72.75,0-141.14,28.33-192.58,79.77c-51.44,51.44-79.77,119.83-79.77,192.58s28.33,141.14,79.77,192.58
				c51.44,51.44,119.83,79.77,192.58,79.77s141.14-28.33,192.58-79.77c51.44-51.44,79.77-119.83,79.77-192.58
				s-28.33-141.14-79.77-192.58C653.14,266.48,584.75,238.15,512,238.15z"/>
		</g>
		<g>
			<path style="fill:#666666;" d="M512,958.5c-60.48,0-119.15-11.85-174.38-35.21c-53.35-22.56-101.26-54.87-142.4-96.01
				c-41.14-41.14-73.45-89.05-96.01-142.4C75.85,629.65,64,570.98,64,510.5s11.85-119.15,35.21-174.38
				c22.56-53.35,54.87-101.26,96.01-142.4s89.05-73.45,142.4-96.01C392.85,74.34,451.52,62.5,512,62.5
				c60.48,0,119.15,11.85,174.38,35.21c53.35,22.56,101.26,54.87,142.4,96.01c41.14,41.14,73.44,89.05,96.01,142.4
				C948.15,391.35,960,450.02,960,510.5s-11.85,119.15-35.21,174.38c-22.56,53.35-54.87,101.26-96.01,142.4
				c-41.14,41.14-89.05,73.44-142.4,96.01C631.15,946.65,572.48,958.5,512,958.5z M512,66.5c-59.94,0-118.09,11.74-172.82,34.89
				c-52.87,22.36-100.35,54.38-141.13,95.15c-40.78,40.78-72.79,88.26-95.15,141.13C79.74,392.41,68,450.56,68,510.5
				s11.74,118.09,34.89,172.82c22.36,52.87,54.38,100.35,95.15,141.13c40.78,40.78,88.26,72.79,141.13,95.15
				C393.91,942.76,452.06,954.5,512,954.5c59.94,0,118.09-11.74,172.82-34.89c52.87-22.36,100.35-54.38,141.13-95.15
				c40.78-40.78,72.79-88.26,95.15-141.13C944.26,628.59,956,570.44,956,510.5s-11.74-118.09-34.89-172.82
				c-22.36-52.87-54.38-100.35-95.15-141.13c-40.78-40.78-88.26-72.79-141.13-95.15C630.09,78.24,571.94,66.5,512,66.5z"/>
		</g>
		<g>
			
				<rect x="510" y="-213.58" transform="matrix(0.7071 -0.7071 0.7071 0.7071 -211.0157 511.5602)" style="fill:#666666;" width="4" height="1448.15"/>
		</g>
		<g>
			
				<rect x="-132.41" y="475.5" transform="matrix(0.7071 -0.7071 0.7071 0.7071 -178.0157 525.2292)" style="fill:#666666;" width="1354.82" height="4"/>
		</g>
	</g>
</g>
<g id="Icons" style="display:none;">
	
		<path style="display:inline;fill-rule:evenodd;clip-rule:evenodd;fill:none;stroke:#0000FF;stroke-width:30;stroke-linecap:round;stroke-linejoin:round;stroke-miterlimit:10;" d="
		M391.46,490.77c0,0-274.94,31.89-222.99-239.52l120.62,121.01l78.93-24.58l25.81-79.6L275.21,150.06
		c272.84-51.65,237.74,219.86,237.74,219.86l365.13,363.25c2.61,2.6,2.47,7.01-0.33,9.79L763.86,859.26
		c-2.8,2.78-7.23,2.93-9.84,0.33L391.46,490.77z"/>
	
		<path style="display:inline;fill-rule:evenodd;clip-rule:evenodd;fill:none;stroke:#0000FF;stroke-width:30;stroke-linecap:round;stroke-linejoin:round;stroke-miterlimit:10;" d="
		M791.79,723.47l-44.9,44.67c-3.09,3.07-8.14,3.07-11.22,0l-82.53-82.1c-3.09-3.07-3.09-8.09,0-11.16l44.9-44.67
		c3.09-3.07,8.14-3.07,11.22,0l82.53,82.1C794.88,715.38,794.88,720.4,791.79,723.47z"/>
	<g style="display:inline;">
		
			<polyline style="fill-rule:evenodd;clip-rule:evenodd;fill:none;stroke:#0000FF;stroke-width:30;stroke-linecap:round;stroke-linejoin:round;stroke-miterlimit:10;" points="
			615.02,457.49 713.39,359.63 767.56,362.98 853.65,241.51 828.98,216.97 		"/>
		
			<polyline style="fill-rule:evenodd;clip-rule:evenodd;fill:none;stroke:#0000FF;stroke-width:30;stroke-linecap:round;stroke-linejoin:round;stroke-miterlimit:10;" points="
			586.29,428.91 684.66,331.05 681.3,277.17 803.41,191.53 828.08,216.07 		"/>
	</g>
	
		<path style="display:inline;fill-rule:evenodd;clip-rule:evenodd;fill:none;stroke:#0000FF;stroke-width:30;stroke-linecap:round;stroke-linejoin:round;stroke-miterlimit:10;" d="
		M158.76,752.28l131.19,130.51c3.09,3.07,8.14,3.07,11.22,0l236.41-235.18c3.09-3.07,3.09-8.09,0-11.16L406.39,505.94
		c-3.09-3.07-8.14-3.07-11.22,0L158.76,741.12C155.67,744.19,155.67,749.21,158.76,752.28z"/>
	
		<path style="display:inline;fill-rule:evenodd;clip-rule:evenodd;fill:none;stroke:#0000FF;stroke-width:30;stroke-linecap:round;stroke-linejoin:round;stroke-miterlimit:10;" d="
		M202.41,795.71l43.88,43.65c3.09,3.07,8.14,3.07,11.22,0l236.41-235.18c3.09-3.07,3.09-8.09,0-11.16l-43.88-43.65
		c-3.09-3.07-8.14-3.07-11.22,0L202.41,784.54C199.33,787.61,199.33,792.64,202.41,795.71z"/>
</g>
<g id="Layer_3">
	
		<path style="fill-rule:evenodd;clip-rule:evenodd;fill:none;stroke:#000000;stroke-width:30;stroke-linecap:round;stroke-linejoin:round;stroke-miterlimit:10;" d="
		M391.46,490.77c0,0-274.94,31.89-222.99-239.52l120.62,121.01l78.93-24.58l25.81-79.6L275.21,150.06
		c272.84-51.65,237.74,219.86,237.74,219.86l365.13,363.25c2.61,2.6,2.47,7.01-0.33,9.79L763.86,859.26
		c-2.8,2.78-7.23,2.93-9.84,0.33L391.46,490.77z"/>
	
		<path style="fill-rule:evenodd;clip-rule:evenodd;fill:none;stroke:#000000;stroke-width:30;stroke-linecap:round;stroke-linejoin:round;stroke-miterlimit:10;" d="
		M791.79,723.47l-44.9,44.67c-3.09,3.07-8.14,3.07-11.22,0l-82.53-82.1c-3.09-3.07-3.09-8.09,0-11.16l44.9-44.67
		c3.09-3.07,8.14-3.07,11.22,0l82.53,82.1C794.88,715.38,794.88,720.4,791.79,723.47z"/>
	<g>
		
			<polyline style="fill-rule:evenodd;clip-rule:evenodd;fill:none;stroke:#000000;stroke-width:30;stroke-linecap:round;stroke-linejoin:round;stroke-miterlimit:10;" points="
			615.02,457.49 713.39,359.63 767.56,362.98 853.65,241.51 828.98,216.97 		"/>
		
			<polyline style="fill-rule:evenodd;clip-rule:evenodd;fill:none;stroke:#000000;stroke-width:30;stroke-linecap:round;stroke-linejoin:round;stroke-miterlimit:10;" points="
			586.29,428.91 684.66,331.05 681.3,277.17 803.41,191.53 828.08,216.07 		"/>
	</g>
	
		<path style="fill-rule:evenodd;clip-rule:evenodd;fill:none;stroke:#000000;stroke-width:30;stroke-linecap:round;stroke-linejoin:round;stroke-miterlimit:10;" d="
		M158.76,752.28l131.19,130.51c3.09,3.07,8.14,3.07,11.22,0l236.41-235.18c3.09-3.07,3.09-8.09,0-11.16L406.39,505.94
		c-3.09-3.07-8.14-3.07-11.22,0L158.76,741.12C155.67,744.19,155.67,749.21,158.76,752.28z"/>
	
		<path style="fill-rule:evenodd;clip-rule:evenodd;fill:none;stroke:#000000;stroke-width:30;stroke-linecap:round;stroke-linejoin:round;stroke-miterlimit:10;" d="
		M202.41,795.71l43.88,43.65c3.09,3.07,8.14,3.07,11.22,0l236.41-235.18c3.09-3.07,3.09-8.09,0-11.16l-43.88-43.65
		c-3.09-3.07-8.14-3.07-11.22,0L202.41,784.54C199.33,787.61,199.33,792.64,202.41,795.71z"/>
</g>
</svg>
