<?xml version="1.0" encoding="utf-8"?>
<!-- Generator: Adobe Illustrator 24.1.0, SVG Export Plug-In . SVG Version: 6.00 Build 0)  -->
<svg version="1.1" xmlns="http://www.w3.org/2000/svg" xmlns:xlink="http://www.w3.org/1999/xlink" x="0px" y="0px"
	 viewBox="0 0 1024 1024" style="enable-background:new 0 0 1024 1024;" xml:space="preserve">
<g id="Icon_Guidlines" style="display:none;">
	<g style="display:inline;">
	</g>
	<g style="display:inline;">
		<g>
			<g>
				<polygon style="fill:#E6E6EB;" points="318,1152.87 -131.79,1152.87 25.64,995.45 27.05,996.86 -126.96,1150.87 318,1150.87 
									"/>
			</g>
			<g>
				<g>
					<polygon style="fill:#E6E6EB;" points="34.33,988.17 18.48,994.82 25.75,996.75 27.68,1004.02 					"/>
				</g>
			</g>
		</g>
	</g>
	<g style="display:inline;">
		<g>
			<rect x="510" y="-1.5" style="fill:#666666;" width="4" height="1024"/>
		</g>
		<g>
			<rect x="704" y="-1.5" style="fill:#666666;" width="4" height="1024"/>
		</g>
		<g>
			<rect x="956" y="-1.5" style="fill:#666666;" width="4" height="1024"/>
		</g>
		<g>
			<rect x="1022" y="-239.5" style="fill:#666666;" width="4" height="1264"/>
		</g>
		<g>
			<rect x="-2" y="-239.5" style="fill:#666666;" width="4" height="1264"/>
		</g>
		<g>
			<rect x="316" y="-1.5" style="fill:#666666;" width="4" height="1024"/>
		</g>
		<g>
			<rect x="64" y="-1.5" style="fill:#666666;" width="4" height="1024"/>
		</g>
		<g>
			<rect x="-238" y="702.5" style="fill:#666666;" width="1262" height="4"/>
		</g>
		<g>
			<rect x="0" y="954.5" style="fill:#666666;" width="1262" height="4"/>
		</g>
		<g>
			<rect x="-238" y="314.5" style="fill:#666666;" width="1262" height="4"/>
		</g>
		<g>
			<rect x="-238" y="62.5" style="fill:#666666;" width="1500" height="4"/>
		</g>
		<g>
			<rect x="0" y="-3.5" style="fill:#666666;" width="1024" height="4"/>
		</g>
		<g>
			<rect x="-2" y="1020.5" style="fill:#666666;" width="1028" height="4"/>
		</g>
		<g>
			<rect x="0" y="508.5" style="fill:#666666;" width="1024" height="4"/>
		</g>
		<g>
			<path style="fill:#666666;" d="M512,786.85c-73.82,0-143.21-28.75-195.41-80.94c-52.2-52.2-80.94-121.59-80.94-195.41
				c0-73.82,28.75-143.21,80.94-195.41c52.2-52.2,121.59-80.94,195.41-80.94s143.21,28.75,195.41,80.94
				c52.2,52.2,80.94,121.59,80.94,195.41c0,73.82-28.75,143.21-80.94,195.41C655.21,758.1,585.82,786.85,512,786.85z M512,238.15
				c-72.75,0-141.14,28.33-192.58,79.77c-51.44,51.44-79.77,119.83-79.77,192.58s28.33,141.14,79.77,192.58
				c51.44,51.44,119.83,79.77,192.58,79.77s141.14-28.33,192.58-79.77c51.44-51.44,79.77-119.83,79.77-192.58
				s-28.33-141.14-79.77-192.58C653.14,266.48,584.75,238.15,512,238.15z"/>
		</g>
		<g>
			<path style="fill:#666666;" d="M512,958.5c-60.48,0-119.15-11.85-174.38-35.21c-53.35-22.56-101.26-54.87-142.4-96.01
				c-41.14-41.14-73.45-89.05-96.01-142.4C75.85,629.65,64,570.98,64,510.5s11.85-119.15,35.21-174.38
				c22.56-53.35,54.87-101.26,96.01-142.4s89.05-73.45,142.4-96.01C392.85,74.34,451.52,62.5,512,62.5
				c60.48,0,119.15,11.85,174.38,35.21c53.35,22.56,101.26,54.87,142.4,96.01c41.14,41.14,73.44,89.05,96.01,142.4
				C948.15,391.35,960,450.02,960,510.5s-11.85,119.15-35.21,174.38c-22.56,53.35-54.87,101.26-96.01,142.4
				c-41.14,41.14-89.05,73.44-142.4,96.01C631.15,946.65,572.48,958.5,512,958.5z M512,66.5c-59.94,0-118.09,11.74-172.82,34.89
				c-52.87,22.36-100.35,54.38-141.13,95.15c-40.78,40.78-72.79,88.26-95.15,141.13C79.74,392.41,68,450.56,68,510.5
				s11.74,118.09,34.89,172.82c22.36,52.87,54.38,100.35,95.15,141.13c40.78,40.78,88.26,72.79,141.13,95.15
				C393.91,942.76,452.06,954.5,512,954.5c59.94,0,118.09-11.74,172.82-34.89c52.87-22.36,100.35-54.38,141.13-95.15
				c40.78-40.78,72.79-88.26,95.15-141.13C944.26,628.59,956,570.44,956,510.5s-11.74-118.09-34.89-172.82
				c-22.36-52.87-54.38-100.35-95.15-141.13c-40.78-40.78-88.26-72.79-141.13-95.15C630.09,78.24,571.94,66.5,512,66.5z"/>
		</g>
		<g>
			
				<rect x="510" y="-213.58" transform="matrix(0.7071 -0.7071 0.7071 0.7071 -211.0157 511.5602)" style="fill:#666666;" width="4" height="1448.15"/>
		</g>
		<g>
			
				<rect x="-132.41" y="475.5" transform="matrix(0.7071 -0.7071 0.7071 0.7071 -178.0157 525.2292)" style="fill:#666666;" width="1354.82" height="4"/>
		</g>
	</g>
</g>
<g id="Icons" style="display:none;">
	<g id="Group_2447_3_" transform="translate(0.25 0.25)" style="display:inline;">
		<g id="Group_2438_3_" transform="translate(2.135 6.656)">
			
				<path id="Path_4107_3_" style="fill:none;stroke:#0000FF;stroke-width:30;stroke-linecap:round;stroke-linejoin:round;stroke-miterlimit:10;" d="
				M343.35,563.48h-0.01h-92.46c-1.83-0.03-3.58-0.74-4.88-2.03l-36.98-36.98"/>
		</g>
		<g id="Group_2439_3_" transform="translate(1.424 10.028)">
			
				<path id="Path_4108_6_" style="fill:none;stroke:#0000FF;stroke-width:30;stroke-linecap:round;stroke-linejoin:round;stroke-miterlimit:10;" d="
				M351.01,721.15v39.74c-0.03,14.03-11.37,25.41-25.4,25.46H196.17c-14.05-0.03-25.43-11.41-25.45-25.46v-60.07"/>
		</g>
		<g id="Group_2440_3_" transform="translate(0 3.894)">
			
				<path id="Path_4109_3_" style="fill:none;stroke:#0000FF;stroke-width:30;stroke-linecap:round;stroke-linejoin:round;stroke-miterlimit:10;" d="
				M807.79,718.58H216.08c-34.43,0-62.33-27.9-62.33-62.34l0,0v-96.02c0-23.26,6.9-46.01,19.85-65.33l12.88-19.38l-64.41-16.1h-0.32
				c-13.29-0.79-23.61-11.87-23.42-25.18v-36.98c0.04-14.03,11.43-25.39,25.45-25.39h92.46c2.35,0,4.53,1.17,5.82,3.12l35.63,53.44
				l51.94,17.4h404.52l51.94-17.4l35.68-53.44c1.28-1.95,3.45-3.12,5.77-3.12h92.46c14.03,0,25.41,11.36,25.45,25.39v36.98
				c0.01,14.05-11.39,25.46-25.44,25.46h-0.01l-62.74,15.85l12.93,19.38c12.91,19.35,19.79,42.08,19.79,65.33v95.89
				C870.06,690.55,842.21,718.5,807.79,718.58z"/>
		</g>
		<g id="Group_2441_3_" transform="translate(2.491 1.942)">
			
				<path id="Path_4110_3_" style="fill:none;stroke:#0000FF;stroke-width:30;stroke-linecap:round;stroke-linejoin:round;stroke-miterlimit:10;" d="
				M226.05,386.9c4.83-8.47,47.58-83.11,56.2-93.48c10.74-12.3,25.97-19.78,42.28-20.77h369.76c16.31,0.99,31.54,8.47,42.28,20.77
				c8.67,10.4,51.32,85.04,56.2,93.48"/>
		</g>
		<g id="Group_2442_3_" transform="translate(11.035 6.656)">
			
				<path id="Path_4111_5_" style="fill:none;stroke:#0000FF;stroke-width:30;stroke-linecap:round;stroke-linejoin:round;stroke-miterlimit:10;" d="
				M802.34,523.74c-0.23,0.25-0.48,0.51-0.75,0.74l-36.98,36.98c-1.31,1.29-3.06,2.03-4.89,2.03h-92.46"/>
		</g>
		<g id="Group_2443_3_" transform="translate(11.035 10.028)">
			
				<path id="Path_4112_3_" style="fill:none;stroke:#0000FF;stroke-width:30;stroke-linecap:round;stroke-linejoin:round;stroke-miterlimit:10;" d="
				M840.6,700.82v60.07c-0.03,14.03-11.37,25.41-25.4,25.46H685.77c-14.03-0.05-25.37-11.44-25.4-25.46v-42.28"/>
		</g>
		<g id="Group_2444_3_" transform="translate(4.628 8.824)">
			
				<path id="Path_4113_3_" style="fill:none;stroke:#0000FF;stroke-width:30;stroke-linecap:round;stroke-linejoin:round;stroke-miterlimit:10;" d="
				M673.68,636.92H340.9"/>
		</g>
		<g id="Group_2445_3_" transform="translate(3.916)">
			
				<path id="Path_4114_3_" style="fill:none;stroke:#0000FF;stroke-width:30;stroke-linecap:round;stroke-linejoin:round;stroke-miterlimit:10;" d="
				M692.88,218.03H304.62c-3.82,0.03-6.94-3.04-6.96-6.85c0-0.79,0.11-1.55,0.37-2.28l18.49-55.47c0.94-2.82,3.58-4.72,6.54-4.72
				h351.32c2.97,0.03,5.59,1.9,6.54,4.72l18.49,55.47c1.23,3.6-0.71,7.53-4.32,8.78c-0.71,0.23-1.46,0.36-2.22,0.36H692.88z"/>
		</g>
		<g id="Group_2446_3_" transform="translate(7.712)">
			
				<path id="Path_4115_3_" style="fill:none;stroke:#0000FF;stroke-width:30;stroke-linecap:round;stroke-linejoin:round;stroke-miterlimit:10;" d="
				M497.99,218.03c-3.82,0.03-6.94-3.04-6.96-6.85c0-0.03,0-0.03,0-0.05v-55.47c-0.32-3.83,2.54-7.2,6.37-7.51
				c3.83-0.33,7.19,2.54,7.51,6.37c0.03,0.38,0.03,0.76,0,1.14v55.47C504.9,214.94,501.81,218.03,497.99,218.03z"/>
		</g>
	</g>
</g>
<g id="Layer_3">
	<g id="Group_2447_1_" transform="translate(0.25 0.25)">
		<g id="Group_2438_1_" transform="translate(2.135 6.656)">
			
				<path id="Path_4107_2_" style="fill:none;stroke:#000000;stroke-width:30;stroke-linecap:round;stroke-linejoin:round;stroke-miterlimit:10;" d="
				M343.35,563.48h-0.01h-92.46c-1.83-0.03-3.58-0.74-4.88-2.03l-36.98-36.98"/>
		</g>
		<g id="Group_2439_1_" transform="translate(1.424 10.028)">
			
				<path id="Path_4108_3_" style="fill:none;stroke:#000000;stroke-width:30;stroke-linecap:round;stroke-linejoin:round;stroke-miterlimit:10;" d="
				M351.01,721.15v39.74c-0.03,14.03-11.37,25.41-25.4,25.46H196.17c-14.05-0.03-25.43-11.41-25.45-25.46v-60.07"/>
		</g>
		<g id="Group_2440_1_" transform="translate(0 3.894)">
			
				<path id="Path_4109_1_" style="fill:none;stroke:#000000;stroke-width:30;stroke-linecap:round;stroke-linejoin:round;stroke-miterlimit:10;" d="
				M807.79,718.58H216.08c-34.43,0-62.33-27.9-62.33-62.34l0,0v-96.02c0-23.26,6.9-46.01,19.85-65.33l12.88-19.38l-64.41-16.1h-0.32
				c-13.29-0.79-23.61-11.87-23.42-25.18v-36.98c0.04-14.03,11.43-25.39,25.45-25.39h92.46c2.35,0,4.53,1.17,5.82,3.12l35.63,53.44
				l51.94,17.4h404.52l51.94-17.4l35.68-53.44c1.28-1.95,3.45-3.12,5.77-3.12h92.46c14.03,0,25.41,11.36,25.45,25.39v36.98
				c0.01,14.05-11.39,25.46-25.44,25.46h-0.01l-62.74,15.85l12.93,19.38c12.91,19.35,19.79,42.08,19.79,65.33v95.89
				C870.06,690.55,842.21,718.5,807.79,718.58z"/>
		</g>
		<g id="Group_2441_1_" transform="translate(2.491 1.942)">
			
				<path id="Path_4110_2_" style="fill:none;stroke:#000000;stroke-width:30;stroke-linecap:round;stroke-linejoin:round;stroke-miterlimit:10;" d="
				M226.05,386.9c4.83-8.47,47.58-83.11,56.2-93.48c10.74-12.3,25.97-19.78,42.28-20.77h369.76c16.31,0.99,31.54,8.47,42.28,20.77
				c8.67,10.4,51.32,85.04,56.2,93.48"/>
		</g>
		<g id="Group_2442_1_" transform="translate(11.035 6.656)">
			
				<path id="Path_4111_2_" style="fill:none;stroke:#000000;stroke-width:30;stroke-linecap:round;stroke-linejoin:round;stroke-miterlimit:10;" d="
				M802.34,523.74c-0.23,0.25-0.48,0.51-0.75,0.74l-36.98,36.98c-1.31,1.29-3.06,2.03-4.89,2.03h-92.46"/>
		</g>
		<g id="Group_2443_1_" transform="translate(11.035 10.028)">
			
				<path id="Path_4112_2_" style="fill:none;stroke:#000000;stroke-width:30;stroke-linecap:round;stroke-linejoin:round;stroke-miterlimit:10;" d="
				M840.6,700.82v60.07c-0.03,14.03-11.37,25.41-25.4,25.46H685.77c-14.03-0.05-25.37-11.44-25.4-25.46v-42.28"/>
		</g>
		<g id="Group_2444_1_" transform="translate(4.628 8.824)">
			
				<path id="Path_4113_1_" style="fill:none;stroke:#000000;stroke-width:30;stroke-linecap:round;stroke-linejoin:round;stroke-miterlimit:10;" d="
				M673.68,636.92H340.9"/>
		</g>
		<g id="Group_2445_1_" transform="translate(3.916)">
			
				<path id="Path_4114_1_" style="fill:none;stroke:#000000;stroke-width:30;stroke-linecap:round;stroke-linejoin:round;stroke-miterlimit:10;" d="
				M692.88,218.03H304.62c-3.82,0.03-6.94-3.04-6.96-6.85c0-0.79,0.11-1.55,0.37-2.28l18.49-55.47c0.94-2.82,3.58-4.72,6.54-4.72
				h351.32c2.97,0.03,5.59,1.9,6.54,4.72l18.49,55.47c1.23,3.6-0.71,7.53-4.32,8.78c-0.71,0.23-1.46,0.36-2.22,0.36H692.88z"/>
		</g>
		<g id="Group_2446_1_" transform="translate(7.712)">
			
				<path id="Path_4115_1_" style="fill:none;stroke:#000000;stroke-width:30;stroke-linecap:round;stroke-linejoin:round;stroke-miterlimit:10;" d="
				M497.99,218.03c-3.82,0.03-6.94-3.04-6.96-6.85c0-0.03,0-0.03,0-0.05v-55.47c-0.32-3.83,2.54-7.2,6.37-7.51
				c3.83-0.33,7.19,2.54,7.51,6.37c0.03,0.38,0.03,0.76,0,1.14v55.47C504.9,214.94,501.81,218.03,497.99,218.03z"/>
		</g>
	</g>
</g>
</svg>
