<?xml version="1.0" encoding="utf-8"?>
<!-- Generator: Adobe Illustrator 24.1.0, SVG Export Plug-In . SVG Version: 6.00 Build 0)  -->
<svg version="1.1" xmlns="http://www.w3.org/2000/svg" xmlns:xlink="http://www.w3.org/1999/xlink" x="0px" y="0px"
	 viewBox="0 0 1024 1024" style="enable-background:new 0 0 1024 1024;" xml:space="preserve">
<g id="Icon_Guidlines" style="display:none;">
	<g style="display:inline;">
	</g>
	<g style="display:inline;">
		<g>
			<g>
				<polygon style="fill:#E6E6EB;" points="318,1152.87 -131.79,1152.87 25.64,995.45 27.05,996.86 -126.96,1150.87 318,1150.87 
									"/>
			</g>
			<g>
				<g>
					<polygon style="fill:#E6E6EB;" points="34.33,988.17 18.48,994.82 25.75,996.75 27.68,1004.02 					"/>
				</g>
			</g>
		</g>
	</g>
	<g style="display:inline;">
		<g>
			<rect x="510" y="-1.5" style="fill:#666666;" width="4" height="1024"/>
		</g>
		<g>
			<rect x="704" y="-1.5" style="fill:#666666;" width="4" height="1024"/>
		</g>
		<g>
			<rect x="956" y="-1.5" style="fill:#666666;" width="4" height="1024"/>
		</g>
		<g>
			<rect x="1022" y="-239.5" style="fill:#666666;" width="4" height="1264"/>
		</g>
		<g>
			<rect x="-2" y="-239.5" style="fill:#666666;" width="4" height="1264"/>
		</g>
		<g>
			<rect x="316" y="-1.5" style="fill:#666666;" width="4" height="1024"/>
		</g>
		<g>
			<rect x="64" y="-1.5" style="fill:#666666;" width="4" height="1024"/>
		</g>
		<g>
			<rect x="-238" y="702.5" style="fill:#666666;" width="1262" height="4"/>
		</g>
		<g>
			<rect x="0" y="954.5" style="fill:#666666;" width="1262" height="4"/>
		</g>
		<g>
			<rect x="-238" y="314.5" style="fill:#666666;" width="1262" height="4"/>
		</g>
		<g>
			<rect x="-238" y="62.5" style="fill:#666666;" width="1500" height="4"/>
		</g>
		<g>
			<rect x="0" y="-3.5" style="fill:#666666;" width="1024" height="4"/>
		</g>
		<g>
			<rect x="-2" y="1020.5" style="fill:#666666;" width="1028" height="4"/>
		</g>
		<g>
			<rect x="0" y="508.5" style="fill:#666666;" width="1024" height="4"/>
		</g>
		<g>
			<path style="fill:#666666;" d="M512,786.85c-73.82,0-143.21-28.75-195.41-80.94c-52.2-52.2-80.94-121.59-80.94-195.41
				c0-73.82,28.75-143.21,80.94-195.41c52.2-52.2,121.59-80.94,195.41-80.94s143.21,28.75,195.41,80.94
				c52.2,52.2,80.94,121.59,80.94,195.41c0,73.82-28.75,143.21-80.94,195.41C655.21,758.1,585.82,786.85,512,786.85z M512,238.15
				c-72.75,0-141.14,28.33-192.58,79.77c-51.44,51.44-79.77,119.83-79.77,192.58s28.33,141.14,79.77,192.58
				c51.44,51.44,119.83,79.77,192.58,79.77s141.14-28.33,192.58-79.77c51.44-51.44,79.77-119.83,79.77-192.58
				s-28.33-141.14-79.77-192.58C653.14,266.48,584.75,238.15,512,238.15z"/>
		</g>
		<g>
			<path style="fill:#666666;" d="M512,958.5c-60.48,0-119.15-11.85-174.38-35.21c-53.35-22.56-101.26-54.87-142.4-96.01
				c-41.14-41.14-73.45-89.05-96.01-142.4C75.85,629.65,64,570.98,64,510.5s11.85-119.15,35.21-174.38
				c22.56-53.35,54.87-101.26,96.01-142.4s89.05-73.45,142.4-96.01C392.85,74.34,451.52,62.5,512,62.5
				c60.48,0,119.15,11.85,174.38,35.21c53.35,22.56,101.26,54.87,142.4,96.01c41.14,41.14,73.44,89.05,96.01,142.4
				C948.15,391.35,960,450.02,960,510.5s-11.85,119.15-35.21,174.38c-22.56,53.35-54.87,101.26-96.01,142.4
				c-41.14,41.14-89.05,73.44-142.4,96.01C631.15,946.65,572.48,958.5,512,958.5z M512,66.5c-59.94,0-118.09,11.74-172.82,34.89
				c-52.87,22.36-100.35,54.38-141.13,95.15c-40.78,40.78-72.79,88.26-95.15,141.13C79.74,392.41,68,450.56,68,510.5
				s11.74,118.09,34.89,172.82c22.36,52.87,54.38,100.35,95.15,141.13c40.78,40.78,88.26,72.79,141.13,95.15
				C393.91,942.76,452.06,954.5,512,954.5c59.94,0,118.09-11.74,172.82-34.89c52.87-22.36,100.35-54.38,141.13-95.15
				c40.78-40.78,72.79-88.26,95.15-141.13C944.26,628.59,956,570.44,956,510.5s-11.74-118.09-34.89-172.82
				c-22.36-52.87-54.38-100.35-95.15-141.13c-40.78-40.78-88.26-72.79-141.13-95.15C630.09,78.24,571.94,66.5,512,66.5z"/>
		</g>
		<g>
			
				<rect x="510" y="-213.58" transform="matrix(0.7071 -0.7071 0.7071 0.7071 -211.0157 511.5602)" style="fill:#666666;" width="4" height="1448.15"/>
		</g>
		<g>
			
				<rect x="-132.41" y="475.5" transform="matrix(0.7071 -0.7071 0.7071 0.7071 -178.0157 525.2292)" style="fill:#666666;" width="1354.82" height="4"/>
		</g>
	</g>
</g>
<g id="Icons" style="display:none;">
	
		<line style="display:inline;fill:none;stroke:#0000FF;stroke-width:30;stroke-linecap:round;stroke-linejoin:round;stroke-miterlimit:10;" x1="824.06" y1="819.23" x2="204.97" y2="819.23"/>
	
		<line style="display:inline;fill:none;stroke:#0000FF;stroke-width:30;stroke-linecap:round;stroke-linejoin:round;stroke-miterlimit:10;" x1="786.41" y1="361.67" x2="242.63" y2="361.67"/>
	
		<line style="display:inline;fill:none;stroke:#0000FF;stroke-width:30;stroke-linecap:round;stroke-linejoin:round;stroke-miterlimit:10;" x1="891.78" y1="742.1" x2="137.26" y2="742.1"/>
	
		<line style="display:inline;fill:none;stroke:#0000FF;stroke-width:30;stroke-linecap:round;stroke-linejoin:round;stroke-miterlimit:10;" x1="574.37" y1="944.5" x2="454.67" y2="944.5"/>
	
		<line style="display:inline;fill:none;stroke:#0000FF;stroke-width:30;stroke-linecap:round;stroke-linejoin:round;stroke-miterlimit:10;" x1="711.44" y1="883.74" x2="317.59" y2="883.74"/>
	
		<rect x="463.62" y="82.25" style="display:inline;fill:none;stroke:#0000FF;stroke-width:30;stroke-linecap:round;stroke-linejoin:round;stroke-miterlimit:10;" width="101.79" height="141.9"/>
	
		<rect x="473.41" y="53.68" transform="matrix(-1.836970e-16 1 -1 -1.836970e-16 779.7783 -249.2582)" style="display:inline;fill:none;stroke:#0000FF;stroke-width:30;stroke-linecap:round;stroke-linejoin:round;stroke-miterlimit:10;" width="82.22" height="423.17"/>
	
		<polygon style="display:inline;fill-rule:evenodd;clip-rule:evenodd;fill:none;stroke:#0000FF;stroke-width:30;stroke-linecap:round;stroke-linejoin:round;stroke-miterlimit:10;" points="
		812.06,417.41 718.51,742.1 516.92,742.1 516.92,423.66 	"/>
	
		<polygon style="display:inline;fill-rule:evenodd;clip-rule:evenodd;fill:none;stroke:#0000FF;stroke-width:30;stroke-linecap:round;stroke-linejoin:round;stroke-miterlimit:10;" points="
		222.04,417.41 315.59,742.1 517.18,742.1 517.18,423.66 	"/>
	
		<path style="display:inline;fill-rule:evenodd;clip-rule:evenodd;fill:none;stroke:#0000FF;stroke-width:30;stroke-linecap:round;stroke-linejoin:round;stroke-miterlimit:10;" d="
		M720.63,556.51c0,40.79-33.06,73.85-73.85,73.85s-73.85-33.06-73.85-73.85"/>
	
		<line style="display:inline;fill-rule:evenodd;clip-rule:evenodd;fill:none;stroke:#0000FF;stroke-width:30;stroke-linecap:round;stroke-linejoin:round;stroke-miterlimit:10;" x1="646.78" y1="473.36" x2="646.78" y2="630.36"/>
</g>
<g id="Layer_3">
	
		<line style="fill:none;stroke:#000000;stroke-width:30;stroke-linecap:round;stroke-linejoin:round;stroke-miterlimit:10;" x1="824.06" y1="819.23" x2="204.97" y2="819.23"/>
	
		<line style="fill:none;stroke:#000000;stroke-width:30;stroke-linecap:round;stroke-linejoin:round;stroke-miterlimit:10;" x1="786.41" y1="361.67" x2="242.63" y2="361.67"/>
	
		<line style="fill:none;stroke:#000000;stroke-width:30;stroke-linecap:round;stroke-linejoin:round;stroke-miterlimit:10;" x1="891.78" y1="742.1" x2="137.26" y2="742.1"/>
	
		<line style="fill:none;stroke:#000000;stroke-width:30;stroke-linecap:round;stroke-linejoin:round;stroke-miterlimit:10;" x1="574.37" y1="944.5" x2="454.67" y2="944.5"/>
	
		<line style="fill:none;stroke:#000000;stroke-width:30;stroke-linecap:round;stroke-linejoin:round;stroke-miterlimit:10;" x1="711.44" y1="883.74" x2="317.59" y2="883.74"/>
	
		<rect x="463.62" y="82.25" style="fill:none;stroke:#000000;stroke-width:30;stroke-linecap:round;stroke-linejoin:round;stroke-miterlimit:10;" width="101.79" height="141.9"/>
	
		<rect x="473.41" y="53.68" transform="matrix(-1.836970e-16 1 -1 -1.836970e-16 779.7783 -249.2582)" style="fill:none;stroke:#000000;stroke-width:30;stroke-linecap:round;stroke-linejoin:round;stroke-miterlimit:10;" width="82.22" height="423.17"/>
	
		<polygon style="fill-rule:evenodd;clip-rule:evenodd;fill:none;stroke:#000000;stroke-width:30;stroke-linecap:round;stroke-linejoin:round;stroke-miterlimit:10;" points="
		812.06,417.41 718.51,742.1 516.92,742.1 516.92,423.66 	"/>
	
		<polygon style="fill-rule:evenodd;clip-rule:evenodd;fill:none;stroke:#000000;stroke-width:30;stroke-linecap:round;stroke-linejoin:round;stroke-miterlimit:10;" points="
		222.04,417.41 315.59,742.1 517.18,742.1 517.18,423.66 	"/>
	
		<path style="fill-rule:evenodd;clip-rule:evenodd;fill:none;stroke:#000000;stroke-width:30;stroke-linecap:round;stroke-linejoin:round;stroke-miterlimit:10;" d="
		M720.63,556.51c0,40.79-33.06,73.85-73.85,73.85s-73.85-33.06-73.85-73.85"/>
	
		<line style="fill-rule:evenodd;clip-rule:evenodd;fill:none;stroke:#000000;stroke-width:30;stroke-linecap:round;stroke-linejoin:round;stroke-miterlimit:10;" x1="646.78" y1="473.36" x2="646.78" y2="630.36"/>
</g>
</svg>
